top_test.vcd
$date
	Thu Jul 13 14:16:20 2017
$end
$version
	Icarus Verilog
$end
$timescale
	1s
$end
$scope module test $end
$scope module top0 $end
$var wire 4 ! alu_op [3:0] $end
$var wire 18 " alu_out [17:0] $end
$var wire 5 # btn [4:0] $end
$var wire 1 $ clk $end
$var wire 18 % dec_data [17:0] $end
$var wire 4 & dst [3:0] $end
$var wire 1 ' mclk $end
$var wire 18 ( mem_data [17:0] $end
$var wire 1 ) mem_we $end
$var wire 32 * op [31:0] $end
$var wire 4 + pc_in [3:0] $end
$var wire 4 , pc_out [3:0] $end
$var wire 1 - pc_we $end
$var wire 18 . reg_data0 [17:0] $end
$var wire 18 / reg_data1 [17:0] $end
$var wire 1 0 reg_we $end
$var wire 1 1 rst_n $end
$var wire 12 2 seg [11:0] $end
$var wire 1 3 sel1 $end
$var wire 18 4 sel1_out [17:0] $end
$var wire 1 5 sel2 $end
$var wire 18 6 sel2_out [17:0] $end
$var wire 4 7 src0 [3:0] $end
$var wire 4 8 src1 [3:0] $end
$var wire 1 9 zf $end
$var wire 1 : zf_out $end
$scope module s1 $end
$var wire 18 ; in0 [17:0] $end
$var wire 18 < in1 [17:0] $end
$var wire 1 3 sel $end
$var reg 18 = out [17:0] $end
$upscope $end
$scope module s2 $end
$var wire 18 > in0 [17:0] $end
$var wire 18 ? in1 [17:0] $end
$var wire 1 5 sel $end
$var reg 18 @ out [17:0] $end
$upscope $end
$scope module r0 $end
$var wire 1 $ clk $end
$var wire 18 A cnt [17:0] $end
$var wire 1 B comp $end
$var wire 18 C data [17:0] $end
$var wire 18 D data0 [17:0] $end
$var wire 18 E data1 [17:0] $end
$var wire 4 F dst [3:0] $end
$var wire 1 G ord $end
$var wire 18 H org [17:0] $end
$var wire 1 1 rst_n $end
$var wire 4 I src0 [3:0] $end
$var wire 4 J src1 [3:0] $end
$var wire 1 0 we $end
$upscope $end
$scope module a0 $end
$var wire 18 K in0 [17:0] $end
$var wire 18 L in1 [17:0] $end
$var wire 4 M op [3:0] $end
$var reg 18 N out [17:0] $end
$var reg 1 O zf $end
$upscope $end
$scope module mem0 $end
$var wire 18 P addr [17:0] $end
$var wire 1 $ clk $end
$var wire 18 Q in [17:0] $end
$var wire 4 R mem0 [3:0] $end
$var wire 4 S mem1 [3:0] $end
$var wire 4 T mem10 [3:0] $end
$var wire 4 U mem11 [3:0] $end
$var wire 4 V mem12 [3:0] $end
$var wire 4 W mem13 [3:0] $end
$var wire 4 X mem14 [3:0] $end
$var wire 4 Y mem15 [3:0] $end
$var wire 4 Z mem2 [3:0] $end
$var wire 4 [ mem3 [3:0] $end
$var wire 4 \ mem4 [3:0] $end
$var wire 4 ] mem5 [3:0] $end
$var wire 4 ^ mem6 [3:0] $end
$var wire 4 _ mem7 [3:0] $end
$var wire 4 ` mem8 [3:0] $end
$var wire 4 a mem9 [3:0] $end
$var wire 18 b out [17:0] $end
$var wire 1 1 rst_n $end
$var wire 1 ) we $end
$var integer 32 c i [31:0] $end
$upscope $end
$scope module pc0 $end
$var wire 1 $ clk $end
$var wire 4 d pc_in [3:0] $end
$var wire 1 1 rst_n $end
$var wire 1 - we $end
$var reg 4 e pc_out [3:0] $end
$upscope $end
$scope module imem0 $end
$var wire 4 f pc_out [3:0] $end
$var reg 32 g op [31:0] $end
$upscope $end
$scope module zf0 $end
$var wire 1 $ clk $end
$var wire 1 1 rst_n $end
$var wire 1 9 zf_in $end
$var reg 1 h zf_out $end
$upscope $end
$scope module dec1 $end
$var wire 32 i op [31:0] $end
$var wire 1 : zf $end
$var reg 4 j alu_op [3:0] $end
$var reg 18 k data [17:0] $end
$var reg 4 l dst [3:0] $end
$var reg 1 m mem_we $end
$var reg 4 n pc_in [3:0] $end
$var reg 1 o pc_we $end
$var reg 1 p reg_we $end
$var reg 1 q sel1 $end
$var reg 1 r sel2 $end
$var reg 4 s src0 [3:0] $end
$var reg 4 t src1 [3:0] $end
$upscope $end
$scope module io0 $end
$var wire 5 u btn [4:0] $end
$var wire 1 $ clk $end
$var wire 18 v cnt [17:0] $end
$var wire 1 w comp $end
$var wire 18 x ord [17:0] $end
$var wire 1 1 rst_n $end
$var reg 5 y btn_flag [4:0] $end
$var reg 12 z count [11:0] $end
$var reg 2 { digit [1:0] $end
$var reg 5 | num [4:0] $end
$var reg 12 } seg [11:0] $end
$upscope $end
$scope module div0 $end
$var wire 1 $ clk $end
$var wire 1 ' mclk $end
$var wire 1 1 rst_n $end
$var reg 2 ~ cnt [1:0] $end
$upscope $end
$upscope $end
$upscope $end
$enddefinitions $end
#0
$dumpvars
bx ~
bx }
bx |
bx {
bx z
bx y
bz x
zw
bz v
b0 u
bx t
bx s
xr
xq
xp
xo
bx n
xm
bx l
bx k
bx j
bx i
xh
bx g
bx f
bx e
bx d
bx c
b0xxxx b
bz a
bz `
bz _
bz ^
bz ]
bz \
bz [
bz Z
bz Y
bz X
bz W
bz V
bz U
bz T
bz S
bz R
bx Q
bx P
xO
bx N
bx M
bx L
bx K
bx J
bx I
bz H
zG
bx F
bx E
bx D
bx C
zB
bz A
bx @
b0xxxx ?
bx >
bx =
bx <
bx ;
x:
x9
bx 8
bx 7
bx 6
x5
bx 4
x3
bx 2
01
x0
bx /
bx .
x-
bx ,
bx +
bx *
x)
b0xxxx (
0'
bx &
bx %
x$
b0 #
bx "
bx !
$end
#50
0O
09
b0 =
b0 4
b0 K
b0 (
b0 ?
b0 b
0m
0)
b0 k
b0 %
b0 ;
0r
05
0q
03
1p
10
0o
0-
b0 n
b0 +
b0 d
b0 s
b1010011100101000 .
b1010011100101000 <
b1010011100101000 D
b0 7
b0 I
b1 t
b0 /
b0 E
b0 L
b0 P
b1 8
b1 J
b0 l
b0 &
b0 F
b0 j
b0 !
b0 M
b100000000000000000000 g
b100000000000000000000 *
b100000000000000000000 i
0G
b0 A
b0 Y
b0 X
b0 W
b0 V
b0 U
b0 T
b0 a
b0 `
b0 _
b0 ^
b0 ]
b0 \
b0 [
b0 Z
b0 S
b0 R
b0 e
b0 ,
b0 f
0h
0:
b0 y
b0 z
b0 }
b0 2
b0 {
b0 |
b10000 c
1$
b0 ~
1'
#100
0'
#150
b1 ~
1'
11
#200
0'
#250
0$
b10 ~
1'
#300
0'
#350
b11 ~
1'
#400
0'
#450
1o
1-
b1 n
b1 +
b1 d
b10000000000000000000000000001 g
b10000000000000000000000000001 *
b10000000000000000000000000001 i
b0 y
b1 {
b1110xxxxxxxx }
b1110xxxxxxxx 2
b1 z
b1 e
b1 ,
b1 f
bx .
bx <
bx D
1$
b0 ~
1'
#500
0'
#550
b1 ~
1'
#600
0'
#650
0$
b10 ~
1'
#700
0'
#750
b11 ~
1'
#800
0'
#850
b10 z
1$
b0 ~
1'
#900
0'
#950
b1 ~
1'
#1000
0'
#1050
0$
b10 ~
1'
#1100
0'
#1150
b11 ~
1'
#1200
0'
#1250
b11 z
1$
b0 ~
1'
#1300
0'
#1350
b1 ~
1'
#1400
0'
#1450
0$
b10 ~
1'
#1500
0'
#1550
b11 ~
1'
#1600
0'
#1650
b100 z
1$
b0 ~
1'
#1700
0'
#1750
b1 ~
1'
#1800
0'
#1850
0$
b10 ~
1'
#1900
0'
#1950
b11 ~
1'
#2000
0'
#2050
b101 z
1$
b0 ~
1'
#2100
0'
#2150
b1 ~
1'
#2200
0'
#2250
0$
b10 ~
1'
#2300
0'
#2350
b11 ~
1'
#2400
0'
#2450
b110 z
1$
b0 ~
1'
#2500
0'
#2550
b1 ~
1'
#2600
0'
#2650
0$
b10 ~
1'
#2700
0'
#2750
b11 ~
1'
#2800
0'
#2850
b111 z
1$
b0 ~
1'
#2900
0'
#2950
b1 ~
1'
#3000
0'
#3050
0$
b10 ~
1'
#3100
0'
#3150
b11 ~
1'
#3200
0'
#3250
b1000 z
1$
b0 ~
1'
#3300
0'
#3350
b1 ~
1'
#3400
0'
#3450
0$
b10 ~
1'
#3500
0'
#3550
b11 ~
1'
#3600
0'
#3650
b1001 z
1$
b0 ~
1'
#3700
0'
#3750
b1 ~
1'
#3800
0'
#3850
0$
b10 ~
1'
#3900
0'
#3950
b11 ~
1'
#4000
0'
#4050
b1010 z
1$
b0 ~
1'
#4100
0'
#4150
b1 ~
1'
#4200
0'
#4250
0$
b10 ~
1'
#4300
0'
#4350
b11 ~
1'
#4400
0'
#4450
b1011 z
1$
b0 ~
1'
#4500
0'
#4550
b1 ~
1'
#4600
0'
#4650
0$
b10 ~
1'
#4700
0'
#4750
b11 ~
1'
#4800
0'
#4850
b1100 z
1$
b0 ~
1'
#4900
0'
#4950
b1 ~
1'
#5000
0'
#5050
0$
b10 ~
1'
#5100
0'
#5150
b11 ~
1'
#5200
0'
#5250
b1101 z
1$
b0 ~
1'
#5300
0'
#5350
b1 ~
1'
#5400
0'
#5450
0$
b10 ~
1'
#5500
0'
#5550
b11 ~
1'
#5600
0'
#5650
b1110 z
1$
b0 ~
1'
#5700
0'
#5750
b1 ~
1'
#5800
0'
#5850
0$
b10 ~
1'
#5900
0'
#5950
b11 ~
1'
#6000
0'
#6050
b1111 z
1$
b0 ~
1'
#6100
0'
#6150
b1 ~
1'
#6200
0'
#6250
0$
b10 ~
1'
#6300
0'
#6350
b11 ~
1'
#6400
0'
#6450
b10000 z
1$
b0 ~
1'
#6500
0'
#6550
b1 ~
1'
#6600
0'
#6650
0$
b10 ~
1'
#6700
0'
#6750
b11 ~
1'
#6800
0'
#6850
b10001 z
1$
b0 ~
1'
#6900
0'
#6950
b1 ~
1'
#7000
0'
#7050
0$
b10 ~
1'
#7100
0'
#7150
b11 ~
1'
#7200
0'
#7250
b10010 z
1$
b0 ~
1'
#7300
0'
#7350
b1 ~
1'
#7400
0'
#7450
0$
b10 ~
1'
#7500
0'
#7550
b11 ~
1'
#7600
0'
#7650
b10011 z
1$
b0 ~
1'
#7700
0'
#7750
b1 ~
1'
#7800
0'
#7850
0$
b10 ~
1'
#7900
0'
#7950
b11 ~
1'
#8000
0'
#8050
b10100 z
1$
b0 ~
1'
#8100
0'
#8150
b1 ~
1'
#8200
0'
#8250
0$
b10 ~
1'
#8300
0'
#8350
b11 ~
1'
#8400
0'
#8450
b10101 z
1$
b0 ~
1'
#8500
0'
#8550
b1 ~
1'
#8600
0'
#8650
0$
b10 ~
1'
#8700
0'
#8750
b11 ~
1'
#8800
0'
#8850
b10110 z
1$
b0 ~
1'
#8900
0'
#8950
b1 ~
1'
#9000
0'
#9050
0$
b10 ~
1'
#9100
0'
#9150
b11 ~
1'
#9200
0'
#9250
b10111 z
1$
b0 ~
1'
#9300
0'
#9350
b1 ~
1'
#9400
0'
#9450
0$
b10 ~
1'
#9500
0'
#9550
b11 ~
1'
#9600
0'
#9650
b11000 z
1$
b0 ~
1'
#9700
0'
#9750
b1 ~
1'
#9800
0'
#9850
0$
b10 ~
1'
#9900
0'
#9950
b11 ~
1'
#10000
0'
#10050
b11001 z
1$
b0 ~
1'
#10100
0'
#10150
b1 ~
1'
#10200
0'
#10250
0$
b10 ~
1'
#10300
0'
#10350
b11 ~
1'
#10400
0'
#10450
b11010 z
1$
b0 ~
1'
#10500
0'
#10550
b1 ~
1'
#10600
0'
#10650
0$
b10 ~
1'
#10700
0'
#10750
b11 ~
1'
#10800
0'
#10850
b11011 z
1$
b0 ~
1'
#10900
0'
#10950
b1 ~
1'
#11000
0'
#11050
0$
b10 ~
1'
#11100
0'
#11150
b11 ~
1'
#11200
0'
#11250
b11100 z
1$
b0 ~
1'
#11300
0'
#11350
b1 ~
1'
#11400
0'
#11450
0$
b10 ~
1'
#11500
0'
#11550
b11 ~
1'
#11600
0'
#11650
b11101 z
1$
b0 ~
1'
#11700
0'
#11750
b1 ~
1'
#11800
0'
#11850
0$
b10 ~
1'
#11900
0'
#11950
b11 ~
1'
#12000
0'
#12050
b11110 z
1$
b0 ~
1'
#12100
0'
#12150
b1 ~
1'
#12200
0'
#12250
0$
b10 ~
1'
#12300
0'
#12350
b11 ~
1'
#12400
0'
#12450
b11111 z
1$
b0 ~
1'
#12500
0'
#12550
b1 ~
1'
#12600
0'
#12650
0$
b10 ~
1'
#12700
0'
#12750
b11 ~
1'
#12800
0'
#12850
b100000 z
1$
b0 ~
1'
#12900
0'
#12950
b1 ~
1'
#13000
0'
#13050
0$
b10 ~
1'
#13100
0'
#13150
b11 ~
1'
#13200
0'
#13250
b100001 z
1$
b0 ~
1'
#13300
0'
#13350
b1 ~
1'
#13400
0'
#13450
0$
b10 ~
1'
#13500
0'
#13550
b11 ~
1'
#13600
0'
#13650
b100010 z
1$
b0 ~
1'
#13700
0'
#13750
b1 ~
1'
#13800
0'
#13850
0$
b10 ~
1'
#13900
0'
#13950
b11 ~
1'
#14000
0'
#14050
b100011 z
1$
b0 ~
1'
#14100
0'
#14150
b1 ~
1'
#14200
0'
#14250
0$
b10 ~
1'
#14300
0'
#14350
b11 ~
1'
#14400
0'
#14450
b100100 z
1$
b0 ~
1'
#14500
0'
#14550
b1 ~
1'
#14600
0'
#14650
0$
b10 ~
1'
#14700
0'
#14750
b11 ~
1'
#14800
0'
#14850
b100101 z
1$
b0 ~
1'
#14900
0'
#14950
b1 ~
1'
#15000
0'
#15050
0$
b10 ~
1'
#15100
0'
#15150
b11 ~
1'
#15200
0'
#15250
b100110 z
1$
b0 ~
1'
#15300
0'
#15350
b1 ~
1'
#15400
0'
#15450
0$
b10 ~
1'
#15500
0'
#15550
b11 ~
1'
#15600
0'
#15650
b100111 z
1$
b0 ~
1'
#15700
0'
#15750
b1 ~
1'
#15800
0'
#15850
0$
b10 ~
1'
#15900
0'
#15950
b11 ~
1'
#16000
0'
#16050
b101000 z
1$
b0 ~
1'
#16100
0'
#16150
b1 ~
1'
#16200
0'
#16250
0$
b10 ~
1'
#16300
0'
#16350
b11 ~
1'
#16400
0'
#16450
b101001 z
1$
b0 ~
1'
#16500
0'
#16550
b1 ~
1'
#16600
0'
#16650
0$
b10 ~
1'
#16700
0'
#16750
b11 ~
1'
#16800
0'
#16850
b101010 z
1$
b0 ~
1'
#16900
0'
#16950
b1 ~
1'
#17000
0'
#17050
0$
b10 ~
1'
#17100
0'
#17150
b11 ~
1'
#17200
0'
#17250
b101011 z
1$
b0 ~
1'
#17300
0'
#17350
b1 ~
1'
#17400
0'
#17450
0$
b10 ~
1'
#17500
0'
#17550
b11 ~
1'
#17600
0'
#17650
b101100 z
1$
b0 ~
1'
#17700
0'
#17750
b1 ~
1'
#17800
0'
#17850
0$
b10 ~
1'
#17900
0'
#17950
b11 ~
1'
#18000
0'
#18050
b101101 z
1$
b0 ~
1'
#18100
0'
#18150
b1 ~
1'
#18200
0'
#18250
0$
b10 ~
1'
#18300
0'
#18350
b11 ~
1'
#18400
0'
#18450
b101110 z
1$
b0 ~
1'
#18500
0'
#18550
b1 ~
1'
#18600
0'
#18650
0$
b10 ~
1'
#18700
0'
#18750
b11 ~
1'
#18800
0'
#18850
b101111 z
1$
b0 ~
1'
#18900
0'
#18950
b1 ~
1'
#19000
0'
#19050
0$
b10 ~
1'
#19100
0'
#19150
b11 ~
1'
#19200
0'
#19250
b110000 z
1$
b0 ~
1'
#19300
0'
#19350
b1 ~
1'
#19400
0'
#19450
0$
b10 ~
1'
#19500
0'
#19550
b11 ~
1'
#19600
0'
#19650
b110001 z
1$
b0 ~
1'
#19700
0'
#19750
b1 ~
1'
#19800
0'
#19850
0$
b10 ~
1'
#19900
0'
#19950
b11 ~
1'
#20000
0'
#20050
b110010 z
1$
b0 ~
1'
#20100
0'
#20150
b1 ~
1'
#20200
0'
#20250
0$
b10 ~
1'
#20300
0'
#20350
b11 ~
1'
#20400
0'
#20450
b110011 z
1$
b0 ~
1'
#20500
0'
#20550
b1 ~
1'
#20600
0'
#20650
0$
b10 ~
1'
#20700
0'
#20750
b11 ~
1'
#20800
0'
#20850
b110100 z
1$
b0 ~
1'
#20900
0'
#20950
b1 ~
1'
#21000
0'
#21050
0$
b10 ~
1'
#21100
0'
#21150
b11 ~
1'
#21200
0'
#21250
b110101 z
1$
b0 ~
1'
#21300
0'
#21350
b1 ~
1'
#21400
0'
#21450
0$
b10 ~
1'
#21500
0'
#21550
b11 ~
1'
#21600
0'
#21650
b110110 z
1$
b0 ~
1'
#21700
0'
#21750
b1 ~
1'
#21800
0'
#21850
0$
b10 ~
1'
#21900
0'
#21950
b11 ~
1'
#22000
0'
#22050
b110111 z
1$
b0 ~
1'
#22100
0'
#22150
b1 ~
1'
#22200
0'
#22250
0$
b10 ~
1'
#22300
0'
#22350
b11 ~
1'
#22400
0'
#22450
b111000 z
1$
b0 ~
1'
#22500
0'
#22550
b1 ~
1'
#22600
0'
#22650
0$
b10 ~
1'
#22700
0'
#22750
b11 ~
1'
#22800
0'
#22850
b111001 z
1$
b0 ~
1'
#22900
0'
#22950
b1 ~
1'
#23000
0'
#23050
0$
b10 ~
1'
#23100
0'
#23150
b11 ~
1'
#23200
0'
#23250
b111010 z
1$
b0 ~
1'
#23300
0'
#23350
b1 ~
1'
#23400
0'
#23450
0$
b10 ~
1'
#23500
0'
#23550
b11 ~
1'
#23600
0'
#23650
b111011 z
1$
b0 ~
1'
#23700
0'
#23750
b1 ~
1'
#23800
0'
#23850
0$
b10 ~
1'
#23900
0'
#23950
b11 ~
1'
#24000
0'
#24050
b111100 z
1$
b0 ~
1'
#24100
0'
#24150
b1 ~
1'
#24200
0'
#24250
0$
b10 ~
1'
#24300
0'
#24350
b11 ~
1'
#24400
0'
#24450
b111101 z
1$
b0 ~
1'
#24500
0'
#24550
b1 ~
1'
#24600
0'
#24650
0$
b10 ~
1'
#24700
0'
#24750
b11 ~
1'
#24800
0'
#24850
b111110 z
1$
b0 ~
1'
#24900
0'
#24950
b1 ~
1'
#25000
0'
#25050
0$
b10 ~
1'
#25100
0'
#25150
b11 ~
1'
#25200
0'
#25250
b111111 z
1$
b0 ~
1'
#25300
0'
#25350
b1 ~
1'
#25400
0'
#25450
0$
b10 ~
1'
#25500
0'
#25550
b11 ~
1'
#25600
0'
#25650
b1000000 z
1$
b0 ~
1'
#25700
0'
#25750
b1 ~
1'
#25800
0'
#25850
0$
b10 ~
1'
#25900
0'
#25950
b11 ~
1'
#26000
0'
#26050
b1000001 z
1$
b0 ~
1'
#26100
0'
#26150
b1 ~
1'
#26200
0'
#26250
0$
b10 ~
1'
#26300
0'
#26350
b11 ~
1'
#26400
0'
#26450
b1000010 z
1$
b0 ~
1'
#26500
0'
#26550
b1 ~
1'
#26600
0'
#26650
0$
b10 ~
1'
#26700
0'
#26750
b11 ~
1'
#26800
0'
#26850
b1000011 z
1$
b0 ~
1'
#26900
0'
#26950
b1 ~
1'
#27000
0'
#27050
0$
b10 ~
1'
#27100
0'
#27150
b11 ~
1'
#27200
0'
#27250
b1000100 z
1$
b0 ~
1'
#27300
0'
#27350
b1 ~
1'
#27400
0'
#27450
0$
b10 ~
1'
#27500
0'
#27550
b11 ~
1'
#27600
0'
#27650
b1000101 z
1$
b0 ~
1'
#27700
0'
#27750
b1 ~
1'
#27800
0'
#27850
0$
b10 ~
1'
#27900
0'
#27950
b11 ~
1'
#28000
0'
#28050
b1000110 z
1$
b0 ~
1'
#28100
0'
#28150
b1 ~
1'
#28200
0'
#28250
0$
b10 ~
1'
#28300
0'
#28350
b11 ~
1'
#28400
0'
#28450
b1000111 z
1$
b0 ~
1'
#28500
0'
#28550
b1 ~
1'
#28600
0'
#28650
0$
b10 ~
1'
#28700
0'
#28750
b11 ~
1'
#28800
0'
#28850
b1001000 z
1$
b0 ~
1'
#28900
0'
#28950
b1 ~
1'
#29000
0'
#29050
0$
b10 ~
1'
#29100
0'
#29150
b11 ~
1'
#29200
0'
#29250
b1001001 z
1$
b0 ~
1'
#29300
0'
#29350
b1 ~
1'
#29400
0'
#29450
0$
b10 ~
1'
#29500
0'
#29550
b11 ~
1'
#29600
0'
#29650
b1001010 z
1$
b0 ~
1'
#29700
0'
#29750
b1 ~
1'
#29800
0'
#29850
0$
b10 ~
1'
#29900
0'
#29950
b11 ~
1'
#30000
0'
#30050
b1001011 z
1$
b0 ~
1'
#30100
0'
#30150
b1 ~
1'
#30200
0'
#30250
0$
b10 ~
1'
#30300
0'
#30350
b11 ~
1'
#30400
0'
#30450
b1001100 z
1$
b0 ~
1'
#30500
0'
#30550
b1 ~
1'
#30600
0'
#30650
0$
b10 ~
1'
#30700
0'
#30750
b11 ~
1'
#30800
0'
#30850
b1001101 z
1$
b0 ~
1'
#30900
0'
#30950
b1 ~
1'
#31000
0'
#31050
0$
b10 ~
1'
#31100
0'
#31150
b11 ~
1'
#31200
0'
#31250
b1001110 z
1$
b0 ~
1'
#31300
0'
#31350
b1 ~
1'
#31400
0'
#31450
0$
b10 ~
1'
#31500
0'
#31550
b11 ~
1'
#31600
0'
#31650
b1001111 z
1$
b0 ~
1'
#31700
0'
#31750
b1 ~
1'
#31800
0'
#31850
0$
b10 ~
1'
#31900
0'
#31950
b11 ~
1'
#32000
0'
#32050
b1010000 z
1$
b0 ~
1'
#32100
0'
#32150
b1 ~
1'
#32200
0'
#32250
0$
b10 ~
1'
#32300
0'
#32350
b11 ~
1'
#32400
0'
#32450
b1010001 z
1$
b0 ~
1'
#32500
0'
#32550
b1 ~
1'
#32600
0'
#32650
0$
b10 ~
1'
#32700
0'
#32750
b11 ~
1'
#32800
0'
#32850
b1010010 z
1$
b0 ~
1'
#32900
0'
#32950
b1 ~
1'
#33000
0'
#33050
0$
b10 ~
1'
#33100
0'
#33150
b11 ~
1'
#33200
0'
#33250
b1010011 z
1$
b0 ~
1'
#33300
0'
#33350
b1 ~
1'
#33400
0'
#33450
0$
b10 ~
1'
#33500
0'
#33550
b11 ~
1'
#33600
0'
#33650
b1010100 z
1$
b0 ~
1'
#33700
0'
#33750
b1 ~
1'
#33800
0'
#33850
0$
b10 ~
1'
#33900
0'
#33950
b11 ~
1'
#34000
0'
#34050
b1010101 z
1$
b0 ~
1'
#34100
0'
#34150
b1 ~
1'
#34200
0'
#34250
0$
b10 ~
1'
#34300
0'
#34350
b11 ~
1'
#34400
0'
#34450
b1010110 z
1$
b0 ~
1'
#34500
0'
#34550
b1 ~
1'
#34600
0'
#34650
0$
b10 ~
1'
#34700
0'
#34750
b11 ~
1'
#34800
0'
#34850
b1010111 z
1$
b0 ~
1'
#34900
0'
#34950
b1 ~
1'
#35000
0'
#35050
0$
b10 ~
1'
#35100
0'
#35150
b11 ~
1'
#35200
0'
#35250
b1011000 z
1$
b0 ~
1'
#35300
0'
#35350
b1 ~
1'
#35400
0'
#35450
0$
b10 ~
1'
#35500
0'
#35550
b11 ~
1'
#35600
0'
#35650
b1011001 z
1$
b0 ~
1'
#35700
0'
#35750
b1 ~
1'
#35800
0'
#35850
0$
b10 ~
1'
#35900
0'
#35950
b11 ~
1'
#36000
0'
#36050
b1011010 z
1$
b0 ~
1'
#36100
0'
#36150
b1 ~
1'
#36200
0'
#36250
0$
b10 ~
1'
#36300
0'
#36350
b11 ~
1'
#36400
0'
#36450
b1011011 z
1$
b0 ~
1'
#36500
0'
#36550
b1 ~
1'
#36600
0'
#36650
0$
b10 ~
1'
#36700
0'
#36750
b11 ~
1'
#36800
0'
#36850
b1011100 z
1$
b0 ~
1'
#36900
0'
#36950
b1 ~
1'
#37000
0'
#37050
0$
b10 ~
1'
#37100
0'
#37150
b11 ~
1'
#37200
0'
#37250
b1011101 z
1$
b0 ~
1'
#37300
0'
#37350
b1 ~
1'
#37400
0'
#37450
0$
b10 ~
1'
#37500
0'
#37550
b11 ~
1'
#37600
0'
#37650
b1011110 z
1$
b0 ~
1'
#37700
0'
#37750
b1 ~
1'
#37800
0'
#37850
0$
b10 ~
1'
#37900
0'
#37950
b11 ~
1'
#38000
0'
#38050
b1011111 z
1$
b0 ~
1'
#38100
0'
#38150
b1 ~
1'
#38200
0'
#38250
0$
b10 ~
1'
#38300
0'
#38350
b11 ~
1'
#38400
0'
#38450
b1100000 z
1$
b0 ~
1'
#38500
0'
#38550
b1 ~
1'
#38600
0'
#38650
0$
b10 ~
1'
#38700
0'
#38750
b11 ~
1'
#38800
0'
#38850
b1100001 z
1$
b0 ~
1'
#38900
0'
#38950
b1 ~
1'
#39000
0'
#39050
0$
b10 ~
1'
#39100
0'
#39150
b11 ~
1'
#39200
0'
#39250
b1100010 z
1$
b0 ~
1'
#39300
0'
#39350
b1 ~
1'
#39400
0'
#39450
0$
b10 ~
1'
#39500
0'
#39550
b11 ~
1'
#39600
0'
#39650
b1100011 z
1$
b0 ~
1'
#39700
0'
#39750
b1 ~
1'
#39800
0'
#39850
0$
b10 ~
1'
#39900
0'
#39950
b11 ~
1'
#40000
0'
#40050
b1100100 z
1$
b0 ~
1'
#40100
0'
#40150
b1 ~
1'
#40200
0'
#40250
0$
b10 ~
1'
#40300
0'
#40350
b11 ~
1'
#40400
0'
#40450
b1100101 z
1$
b0 ~
1'
#40500
0'
#40550
b1 ~
1'
#40600
0'
#40650
0$
b10 ~
1'
#40700
0'
#40750
b11 ~
1'
#40800
0'
#40850
b1100110 z
1$
b0 ~
1'
#40900
0'
#40950
b1 ~
1'
#41000
0'
#41050
0$
b10 ~
1'
#41100
0'
#41150
b11 ~
1'
#41200
0'
#41250
b1100111 z
1$
b0 ~
1'
#41300
0'
#41350
b1 ~
1'
#41400
0'
#41450
0$
b10 ~
1'
#41500
0'
#41550
b11 ~
1'
#41600
0'
#41650
b1101000 z
1$
b0 ~
1'
#41700
0'
#41750
b1 ~
1'
#41800
0'
#41850
0$
b10 ~
1'
#41900
0'
#41950
b11 ~
1'
#42000
0'
#42050
b1101001 z
1$
b0 ~
1'
#42100
0'
#42150
b1 ~
1'
#42200
0'
#42250
0$
b10 ~
1'
#42300
0'
#42350
b11 ~
1'
#42400
0'
#42450
b1101010 z
1$
b0 ~
1'
#42500
0'
#42550
b1 ~
1'
#42600
0'
#42650
0$
b10 ~
1'
#42700
0'
#42750
b11 ~
1'
#42800
0'
#42850
b1101011 z
1$
b0 ~
1'
#42900
0'
#42950
b1 ~
1'
#43000
0'
#43050
0$
b10 ~
1'
#43100
0'
#43150
b11 ~
1'
#43200
0'
#43250
b1101100 z
1$
b0 ~
1'
#43300
0'
#43350
b1 ~
1'
#43400
0'
#43450
0$
b10 ~
1'
#43500
0'
#43550
b11 ~
1'
#43600
0'
#43650
b1101101 z
1$
b0 ~
1'
#43700
0'
#43750
b1 ~
1'
#43800
0'
#43850
0$
b10 ~
1'
#43900
0'
#43950
b11 ~
1'
#44000
0'
#44050
b1101110 z
1$
b0 ~
1'
#44100
0'
#44150
b1 ~
1'
#44200
0'
#44250
0$
b10 ~
1'
#44300
0'
#44350
b11 ~
1'
#44400
0'
#44450
b1101111 z
1$
b0 ~
1'
#44500
0'
#44550
b1 ~
1'
#44600
0'
#44650
0$
b10 ~
1'
#44700
0'
#44750
b11 ~
1'
#44800
0'
#44850
b1110000 z
1$
b0 ~
1'
#44900
0'
#44950
b1 ~
1'
#45000
0'
#45050
0$
b10 ~
1'
#45100
0'
#45150
b11 ~
1'
#45200
0'
#45250
b1110001 z
1$
b0 ~
1'
#45300
0'
#45350
b1 ~
1'
#45400
0'
#45450
0$
b10 ~
1'
#45500
0'
#45550
b11 ~
1'
#45600
0'
#45650
b1110010 z
1$
b0 ~
1'
#45700
0'
#45750
b1 ~
1'
#45800
0'
#45850
0$
b10 ~
1'
#45900
0'
#45950
b11 ~
1'
#46000
0'
#46050
b1110011 z
1$
b0 ~
1'
#46100
0'
#46150
b1 ~
1'
#46200
0'
#46250
0$
b10 ~
1'
#46300
0'
#46350
b11 ~
1'
#46400
0'
#46450
b1110100 z
1$
b0 ~
1'
#46500
0'
#46550
b1 ~
1'
#46600
0'
#46650
0$
b10 ~
1'
#46700
0'
#46750
b11 ~
1'
#46800
0'
#46850
b1110101 z
1$
b0 ~
1'
#46900
0'
#46950
b1 ~
1'
#47000
0'
#47050
0$
b10 ~
1'
#47100
0'
#47150
b11 ~
1'
#47200
0'
#47250
b1110110 z
1$
b0 ~
1'
#47300
0'
#47350
b1 ~
1'
#47400
0'
#47450
0$
b10 ~
1'
#47500
0'
#47550
b11 ~
1'
#47600
0'
#47650
b1110111 z
1$
b0 ~
1'
#47700
0'
#47750
b1 ~
1'
#47800
0'
#47850
0$
b10 ~
1'
#47900
0'
#47950
b11 ~
1'
#48000
0'
#48050
b1111000 z
1$
b0 ~
1'
#48100
0'
#48150
b1 ~
1'
#48200
0'
#48250
0$
b10 ~
1'
#48300
0'
#48350
b11 ~
1'
#48400
0'
#48450
b1111001 z
1$
b0 ~
1'
#48500
0'
#48550
b1 ~
1'
#48600
0'
#48650
0$
b10 ~
1'
#48700
0'
#48750
b11 ~
1'
#48800
0'
#48850
b1111010 z
1$
b0 ~
1'
#48900
0'
#48950
b1 ~
1'
#49000
0'
#49050
0$
b10 ~
1'
#49100
0'
#49150
b11 ~
1'
#49200
0'
#49250
b1111011 z
1$
b0 ~
1'
#49300
0'
#49350
b1 ~
1'
#49400
0'
#49450
0$
b10 ~
1'
#49500
0'
#49550
b11 ~
1'
#49600
0'
#49650
b1111100 z
1$
b0 ~
1'
#49700
0'
#49750
b1 ~
1'
#49800
0'
#49850
0$
b10 ~
1'
#49900
0'
#49950
b11 ~
1'
#50000
0'
#50050
b1111101 z
1$
b0 ~
1'
#50100
0'
#50150
b1 ~
1'
#50200
0'
#50250
0$
b10 ~
1'
#50300
0'
#50350
b11 ~
1'
#50400
0'
#50450
b1111110 z
1$
b0 ~
1'
#50500
0'
#50550
b1 ~
1'
#50600
0'
#50650
0$
b10 ~
1'
#50700
0'
#50750
b11 ~
1'
#50800
0'
#50850
b1111111 z
1$
b0 ~
1'
#50900
0'
#50950
b1 ~
1'
#51000
0'
