top_test.vcd
$date
	Mon Jul 17 17:36:21 2017
$end
$version
	Icarus Verilog
$end
$timescale
	1s
$end
$scope module test $end
$scope module top0 $end
$var wire 5 ! btn [4:0] $end
$var wire 1 " comp $end
$var wire 1 # mclk $end
$var wire 1 $ rst_n $end
$var wire 4 % src1 [3:0] $end
$var wire 4 & src0 [3:0] $end
$var wire 40 ' sel2_out [39:0] $end
$var wire 1 ( sel2 $end
$var wire 40 ) sel1_out [39:0] $end
$var wire 1 * sel1 $end
$var wire 12 + seg [11:0] $end
$var wire 1 , reg_we $end
$var wire 40 - reg_data1 [39:0] $end
$var wire 40 . reg_data0 [39:0] $end
$var wire 1 / pc_we $end
$var wire 4 0 pc_out [3:0] $end
$var wire 4 1 pc_in [3:0] $end
$var wire 40 2 ord [39:0] $end
$var wire 32 3 op [31:0] $end
$var wire 1 4 mem_we $end
$var wire 40 5 mem_data [39:0] $end
$var wire 4 6 dst [3:0] $end
$var wire 40 7 dec_data [39:0] $end
$var wire 40 8 cnt [39:0] $end
$var wire 1 9 clk $end
$var wire 40 : alu_out [39:0] $end
$var wire 4 ; alu_op [3:0] $end
$scope module a0 $end
$var wire 4 < op [3:0] $end
$var wire 40 = in1 [39:0] $end
$var wire 40 > in0 [39:0] $end
$var reg 40 ? out [39:0] $end
$upscope $end
$scope module dec1 $end
$var wire 32 @ op [31:0] $end
$var reg 4 A alu_op [3:0] $end
$var reg 40 B data [39:0] $end
$var reg 4 C dst [3:0] $end
$var reg 1 4 mem_we $end
$var reg 4 D pc_in [3:0] $end
$var reg 1 / pc_we $end
$var reg 1 , reg_we $end
$var reg 1 * sel1 $end
$var reg 1 ( sel2 $end
$var reg 4 E src0 [3:0] $end
$var reg 4 F src1 [3:0] $end
$upscope $end
$scope module div0 $end
$var wire 1 9 clk $end
$var wire 1 # mclk $end
$var wire 1 $ rst_n $end
$var reg 2 G cnt [1:0] $end
$upscope $end
$scope module imem0 $end
$var wire 4 H pc_out [3:0] $end
$var reg 32 I op [31:0] $end
$upscope $end
$scope module io0 $end
$var wire 5 J btn [4:0] $end
$var wire 1 9 clk $end
$var wire 1 " comp $end
$var wire 1 $ rst_n $end
$var wire 40 K ord [39:0] $end
$var wire 40 L cnt [39:0] $end
$var reg 5 M btn_flag [4:0] $end
$var reg 12 N count [11:0] $end
$var reg 2 O digit [1:0] $end
$var reg 5 P num [4:0] $end
$var reg 12 Q seg [11:0] $end
$upscope $end
$scope module mem0 $end
$var wire 1 9 clk $end
$var wire 40 R in [39:0] $end
$var wire 4 S mem0 [3:0] $end
$var wire 4 T mem1 [3:0] $end
$var wire 4 U mem10 [3:0] $end
$var wire 4 V mem11 [3:0] $end
$var wire 4 W mem12 [3:0] $end
$var wire 4 X mem13 [3:0] $end
$var wire 4 Y mem14 [3:0] $end
$var wire 4 Z mem15 [3:0] $end
$var wire 4 [ mem2 [3:0] $end
$var wire 4 \ mem3 [3:0] $end
$var wire 4 ] mem4 [3:0] $end
$var wire 4 ^ mem5 [3:0] $end
$var wire 4 _ mem6 [3:0] $end
$var wire 4 ` mem7 [3:0] $end
$var wire 4 a mem8 [3:0] $end
$var wire 4 b mem9 [3:0] $end
$var wire 1 $ rst_n $end
$var wire 1 4 we $end
$var wire 40 c out [39:0] $end
$var wire 40 d addr [39:0] $end
$var integer 32 e i [31:0] $end
$upscope $end
$scope module pc0 $end
$var wire 1 9 clk $end
$var wire 4 f pc_in [3:0] $end
$var wire 1 $ rst_n $end
$var wire 1 / we $end
$var reg 4 g pc_out [3:0] $end
$upscope $end
$scope module r0 $end
$var wire 1 9 clk $end
$var wire 40 h cnt [39:0] $end
$var wire 1 " comp $end
$var wire 40 i data0 [39:0] $end
$var wire 40 j data1 [39:0] $end
$var wire 4 k dst [3:0] $end
$var wire 40 l ord [39:0] $end
$var wire 1 $ rst_n $end
$var wire 4 m src0 [3:0] $end
$var wire 4 n src1 [3:0] $end
$var wire 1 , we $end
$var wire 40 o data [39:0] $end
$upscope $end
$scope module s1 $end
$var wire 40 p in0 [39:0] $end
$var wire 40 q in1 [39:0] $end
$var wire 1 * sel $end
$var reg 40 r out [39:0] $end
$upscope $end
$scope module s2 $end
$var wire 40 s in0 [39:0] $end
$var wire 40 t in1 [39:0] $end
$var wire 1 ( sel $end
$var reg 40 u out [39:0] $end
$upscope $end
$upscope $end
$upscope $end
$enddefinitions $end
#0
$dumpvars
bx u
b0xxxx t
bx s
bx r
bx q
bx p
bx o
bx n
bx m
bx l
bx k
bx j
bx i
bx h
bx g
bx f
bx e
bx d
b0xxxx c
bx b
bx a
bx `
bx _
bx ^
bx ]
bx \
bx [
bx Z
bx Y
bx X
bx W
bx V
bx U
bx T
bx S
bx R
bx Q
bx P
bx O
bx N
bx M
bx L
bx K
b0 J
bx I
bx H
bx G
bx F
bx E
bx D
bx C
bx B
bx A
bx @
bx ?
bx >
bx =
bx <
bx ;
bx :
x9
bx 8
bx 7
bx 6
b0xxxx 5
x4
bx 3
bx 2
bx 1
bx 0
x/
bx .
bx -
x,
bx +
x*
bx )
x(
bx '
bx &
bx %
0$
0#
1"
b0 !
$end
#50
b0 )
b0 >
b0 r
b0 5
b0 c
b0 t
04
b0 7
b0 B
b0 p
0(
0*
1,
0/
b0 1
b0 D
b0 f
b1010011100101000 .
b1010011100101000 i
b1010011100101000 q
b0 &
b0 E
b0 m
b0 -
b0 =
b0 d
b0 j
b1 %
b1 F
b1 n
b10 6
b10 C
b10 k
b0 ;
b0 <
b0 A
b10000100000000000000000000 3
b10000100000000000000000000 @
b10000100000000000000000000 I
b0 2
b0 K
b0 l
b0 8
b0 L
b0 h
b0 Z
b0 Y
b0 X
b0 W
b0 V
b0 U
b0 b
b0 a
b0 `
b0 _
b0 ^
b0 ]
b0 \
b0 [
b0 T
b0 S
b0 0
b0 H
b0 g
b0 M
b0 N
b0 +
b0 Q
b0 O
b0 P
b10000 e
19
b0 G
1#
#100
0#
#150
b1 G
1#
1$
#200
0#
#250
09
b10 G
1#
#300
0#
#350
b11 G
1#
#400
0#
#450
b1 6
b1 C
b1 k
b1000100000000000000000000 3
b1000100000000000000000000 @
b1000100000000000000000000 I
b1 O
b111011000000 +
b111011000000 Q
b1 N
b1 0
b1 H
b1 g
bx 2
bx K
bx l
19
b0 G
1#
#500
0#
#550
b1 G
1#
#600
0#
#650
09
b10 G
1#
#700
0#
#750
b11 G
1#
#800
0#
#850
b0 %
b0 F
b0 n
b0 6
b0 C
b0 k
b1 ;
b1 <
b1 A
b10000000000000000000000000001 3
b10000000000000000000000000001 @
b10000000000000000000000000001 I
b0 5
b0 c
b0 t
b1010011100101000 -
b1010011100101000 =
b1010011100101000 d
b1010011100101000 j
bx 8
bx L
bx h
b10 0
b10 H
b10 g
b10 N
19
b0 G
1#
#900
0#
#950
b1 G
1#
#1000
0#
#1050
09
b10 G
1#
#1100
0#
#1150
b11 G
1#
#1200
0#
#1250
b0xxxx 5
b0xxxx c
b0xxxx t
b11 N
b11 0
b11 H
b11 g
bx .
bx i
bx q
bx -
bx =
bx d
bx j
19
b0 G
1#
#1300
0#
#1350
b1 G
1#
#1400
0#
#1450
09
b10 G
1#
#1500
0#
#1550
b11 G
1#
#1600
0#
#1650
b100 0
b100 H
b100 g
b100 N
19
b0 G
1#
#1700
0#
#1750
b1 G
1#
#1800
0#
#1850
09
b10 G
1#
#1900
0#
#1950
b11 G
1#
#2000
0#
#2050
b101 N
b101 0
b101 H
b101 g
19
b0 G
1#
#2100
0#
#2150
b1 G
1#
#2200
0#
#2250
09
b10 G
1#
#2300
0#
#2350
b11 G
1#
#2400
0#
#2450
b110 0
b110 H
b110 g
b110 N
19
b0 G
1#
#2500
0#
#2550
b1 G
1#
#2600
0#
#2650
09
b10 G
1#
#2700
0#
#2750
b11 G
1#
#2800
0#
#2850
b111 N
b111 0
b111 H
b111 g
19
b0 G
1#
#2900
0#
#2950
b1 G
1#
#3000
0#
#3050
09
b10 G
1#
#3100
0#
#3150
b11 G
1#
#3200
0#
#3250
b1000 0
b1000 H
b1000 g
b1000 N
19
b0 G
1#
#3300
0#
#3350
b1 G
1#
#3400
0#
#3450
09
b10 G
1#
#3500
0#
#3550
b11 G
1#
#3600
0#
#3650
b1001 N
b1001 0
b1001 H
b1001 g
19
b0 G
1#
#3700
0#
#3750
b1 G
1#
#3800
0#
#3850
09
b10 G
1#
#3900
0#
#3950
b11 G
1#
#4000
0#
#4050
b1010 0
b1010 H
b1010 g
b1010 N
19
b0 G
1#
#4100
0#
#4150
b1 G
1#
#4200
0#
#4250
09
b10 G
1#
#4300
0#
#4350
b11 G
1#
#4400
0#
#4450
b1011 N
b1011 0
b1011 H
b1011 g
19
b0 G
1#
#4500
0#
#4550
b1 G
1#
#4600
0#
#4650
09
b10 G
1#
#4700
0#
#4750
b11 G
1#
#4800
0#
#4850
b1100 0
b1100 H
b1100 g
b1100 N
19
b0 G
1#
#4900
0#
#4950
b1 G
1#
#5000
0#
#5050
09
b10 G
1#
#5100
0#
#5150
b11 G
1#
#5200
0#
#5250
b1101 N
b1101 0
b1101 H
b1101 g
19
b0 G
1#
#5300
0#
#5350
b1 G
1#
#5400
0#
#5450
09
b10 G
1#
#5500
0#
#5550
b11 G
1#
#5600
0#
#5650
b1110 0
b1110 H
b1110 g
b1110 N
19
b0 G
1#
#5700
0#
#5750
b1 G
1#
#5800
0#
#5850
09
b10 G
1#
#5900
0#
#5950
b11 G
1#
#6000
0#
#6050
b1111 N
b1111 0
b1111 H
b1111 g
19
b0 G
1#
#6100
0#
#6150
b1 G
1#
#6200
0#
#6250
09
b10 G
1#
#6300
0#
#6350
b11 G
1#
#6400
0#
#6450
b1 %
b1 F
b1 n
b10 6
b10 C
b10 k
b0 ;
b0 <
b0 A
b10000100000000000000000000 3
b10000100000000000000000000 @
b10000100000000000000000000 I
b0 0
b0 H
b0 g
b10000 N
19
b0 G
1#
#6500
0#
#6550
b1 G
1#
#6600
0#
#6650
09
b10 G
1#
#6700
0#
#6750
b11 G
1#
#6800
0#
#6850
b1 6
b1 C
b1 k
b1000100000000000000000000 3
b1000100000000000000000000 @
b1000100000000000000000000 I
b10001 N
b1 0
b1 H
b1 g
19
b0 G
1#
#6900
0#
#6950
b1 G
1#
#7000
0#
#7050
09
b10 G
1#
#7100
0#
#7150
b11 G
1#
#7200
0#
#7250
b0 %
b0 F
b0 n
b0 6
b0 C
b0 k
b1 ;
b1 <
b1 A
b10000000000000000000000000001 3
b10000000000000000000000000001 @
b10000000000000000000000000001 I
b10 0
b10 H
b10 g
b10010 N
19
b0 G
1#
#7300
0#
#7350
b1 G
1#
#7400
0#
#7450
09
b10 G
1#
#7500
0#
#7550
b11 G
1#
#7600
0#
#7650
b10011 N
b11 0
b11 H
b11 g
19
b0 G
1#
#7700
0#
#7750
b1 G
1#
#7800
0#
#7850
09
b10 G
1#
#7900
0#
#7950
b11 G
1#
#8000
0#
#8050
b100 0
b100 H
b100 g
b10100 N
19
b0 G
1#
#8100
0#
#8150
b1 G
1#
#8200
0#
#8250
09
b10 G
1#
#8300
0#
#8350
b11 G
1#
#8400
0#
#8450
b10101 N
b101 0
b101 H
b101 g
19
b0 G
1#
#8500
0#
#8550
b1 G
1#
#8600
0#
#8650
09
b10 G
1#
#8700
0#
#8750
b11 G
1#
#8800
0#
#8850
b110 0
b110 H
b110 g
b10110 N
19
b0 G
1#
#8900
0#
#8950
b1 G
1#
#9000
0#
#9050
09
b10 G
1#
#9100
0#
#9150
b11 G
1#
#9200
0#
#9250
b10111 N
b111 0
b111 H
b111 g
19
b0 G
1#
#9300
0#
#9350
b1 G
1#
#9400
0#
#9450
09
b10 G
1#
#9500
0#
#9550
b11 G
1#
#9600
0#
#9650
b1000 0
b1000 H
b1000 g
b11000 N
19
b0 G
1#
#9700
0#
#9750
b1 G
1#
#9800
0#
#9850
09
b10 G
1#
#9900
0#
#9950
b11 G
1#
#10000
0#
#10050
b11001 N
b1001 0
b1001 H
b1001 g
19
b0 G
1#
#10100
0#
#10150
b1 G
1#
#10200
0#
#10250
09
b10 G
1#
#10300
0#
#10350
b11 G
1#
#10400
0#
#10450
b1010 0
b1010 H
b1010 g
b11010 N
19
b0 G
1#
#10500
0#
#10550
b1 G
1#
#10600
0#
#10650
09
b10 G
1#
#10700
0#
#10750
b11 G
1#
#10800
0#
#10850
b11011 N
b1011 0
b1011 H
b1011 g
19
b0 G
1#
#10900
0#
#10950
b1 G
1#
#11000
0#
#11050
09
b10 G
1#
#11100
0#
#11150
b11 G
1#
#11200
0#
#11250
b1100 0
b1100 H
b1100 g
b11100 N
19
b0 G
1#
#11300
0#
#11350
b1 G
1#
#11400
0#
#11450
09
b10 G
1#
#11500
0#
#11550
b11 G
1#
#11600
0#
#11650
b11101 N
b1101 0
b1101 H
b1101 g
19
b0 G
1#
#11700
0#
#11750
b1 G
1#
#11800
0#
#11850
09
b10 G
1#
#11900
0#
#11950
b11 G
1#
#12000
0#
#12050
b1110 0
b1110 H
b1110 g
b11110 N
19
b0 G
1#
#12100
0#
#12150
b1 G
1#
#12200
0#
#12250
09
b10 G
1#
#12300
0#
#12350
b11 G
1#
#12400
0#
#12450
b11111 N
b1111 0
b1111 H
b1111 g
19
b0 G
1#
#12500
0#
#12550
b1 G
1#
#12600
0#
#12650
09
b10 G
1#
#12700
0#
#12750
b11 G
1#
#12800
0#
#12850
b1 %
b1 F
b1 n
b10 6
b10 C
b10 k
b0 ;
b0 <
b0 A
b10000100000000000000000000 3
b10000100000000000000000000 @
b10000100000000000000000000 I
b0 0
b0 H
b0 g
b100000 N
19
b0 G
1#
#12900
0#
#12950
b1 G
1#
#13000
0#
#13050
09
b10 G
1#
#13100
0#
#13150
b11 G
1#
#13200
0#
#13250
b1 6
b1 C
b1 k
b1000100000000000000000000 3
b1000100000000000000000000 @
b1000100000000000000000000 I
b100001 N
b1 0
b1 H
b1 g
19
b0 G
1#
#13300
0#
#13350
b1 G
1#
#13400
0#
#13450
09
b10 G
1#
#13500
0#
#13550
b11 G
1#
#13600
0#
#13650
b0 %
b0 F
b0 n
b0 6
b0 C
b0 k
b1 ;
b1 <
b1 A
b10000000000000000000000000001 3
b10000000000000000000000000001 @
b10000000000000000000000000001 I
b10 0
b10 H
b10 g
b100010 N
19
b0 G
1#
#13700
0#
#13750
b1 G
1#
#13800
0#
#13850
09
b10 G
1#
#13900
0#
#13950
b11 G
1#
#14000
0#
#14050
b100011 N
b11 0
b11 H
b11 g
19
b0 G
1#
#14100
0#
#14150
b1 G
1#
#14200
0#
#14250
09
b10 G
1#
#14300
0#
#14350
b11 G
1#
#14400
0#
#14450
b100 0
b100 H
b100 g
b100100 N
19
b0 G
1#
#14500
0#
#14550
b1 G
1#
#14600
0#
#14650
09
b10 G
1#
#14700
0#
#14750
b11 G
1#
#14800
0#
#14850
b100101 N
b101 0
b101 H
b101 g
19
b0 G
1#
#14900
0#
#14950
b1 G
1#
#15000
0#
#15050
09
b10 G
1#
#15100
0#
#15150
b11 G
1#
#15200
0#
#15250
b110 0
b110 H
b110 g
b100110 N
19
b0 G
1#
#15300
0#
#15350
b1 G
1#
#15400
0#
#15450
09
b10 G
1#
#15500
0#
#15550
b11 G
1#
#15600
0#
#15650
b100111 N
b111 0
b111 H
b111 g
19
b0 G
1#
#15700
0#
#15750
b1 G
1#
#15800
0#
#15850
09
b10 G
1#
#15900
0#
#15950
b11 G
1#
#16000
0#
#16050
b1000 0
b1000 H
b1000 g
b101000 N
19
b0 G
1#
#16100
0#
#16150
b1 G
1#
#16200
0#
#16250
09
b10 G
1#
#16300
0#
#16350
b11 G
1#
#16400
0#
#16450
b101001 N
b1001 0
b1001 H
b1001 g
19
b0 G
1#
#16500
0#
#16550
b1 G
1#
#16600
0#
#16650
09
b10 G
1#
#16700
0#
#16750
b11 G
1#
#16800
0#
#16850
b1010 0
b1010 H
b1010 g
b101010 N
19
b0 G
1#
#16900
0#
#16950
b1 G
1#
#17000
0#
#17050
09
b10 G
1#
#17100
0#
#17150
b11 G
1#
#17200
0#
#17250
b101011 N
b1011 0
b1011 H
b1011 g
19
b0 G
1#
#17300
0#
#17350
b1 G
1#
#17400
0#
#17450
09
b10 G
1#
#17500
0#
#17550
b11 G
1#
#17600
0#
#17650
b1100 0
b1100 H
b1100 g
b101100 N
19
b0 G
1#
#17700
0#
#17750
b1 G
1#
#17800
0#
#17850
09
b10 G
1#
#17900
0#
#17950
b11 G
1#
#18000
0#
#18050
b101101 N
b1101 0
b1101 H
b1101 g
19
b0 G
1#
#18100
0#
#18150
b1 G
1#
#18200
0#
#18250
09
b10 G
1#
#18300
0#
#18350
b11 G
1#
#18400
0#
#18450
b1110 0
b1110 H
b1110 g
b101110 N
19
b0 G
1#
#18500
0#
#18550
b1 G
1#
#18600
0#
#18650
09
b10 G
1#
#18700
0#
#18750
b11 G
1#
#18800
0#
#18850
b101111 N
b1111 0
b1111 H
b1111 g
19
b0 G
1#
#18900
0#
#18950
b1 G
1#
#19000
0#
#19050
09
b10 G
1#
#19100
0#
#19150
b11 G
1#
#19200
0#
#19250
b1 %
b1 F
b1 n
b10 6
b10 C
b10 k
b0 ;
b0 <
b0 A
b10000100000000000000000000 3
b10000100000000000000000000 @
b10000100000000000000000000 I
b0 0
b0 H
b0 g
b110000 N
19
b0 G
1#
#19300
0#
#19350
b1 G
1#
#19400
0#
#19450
09
b10 G
1#
#19500
0#
#19550
b11 G
1#
#19600
0#
#19650
b1 6
b1 C
b1 k
b1000100000000000000000000 3
b1000100000000000000000000 @
b1000100000000000000000000 I
b110001 N
b1 0
b1 H
b1 g
19
b0 G
1#
#19700
0#
#19750
b1 G
1#
#19800
0#
#19850
09
b10 G
1#
#19900
0#
#19950
b11 G
1#
#20000
0#
#20050
b0 %
b0 F
b0 n
b0 6
b0 C
b0 k
b1 ;
b1 <
b1 A
b10000000000000000000000000001 3
b10000000000000000000000000001 @
b10000000000000000000000000001 I
b10 0
b10 H
b10 g
b110010 N
19
b0 G
1#
#20100
0#
#20150
b1 G
1#
#20200
0#
#20250
09
b10 G
1#
#20300
0#
#20350
b11 G
1#
#20400
0#
#20450
b110011 N
b11 0
b11 H
b11 g
19
b0 G
1#
#20500
0#
#20550
b1 G
1#
#20600
0#
#20650
09
b10 G
1#
#20700
0#
#20750
b11 G
1#
#20800
0#
#20850
b100 0
b100 H
b100 g
b110100 N
19
b0 G
1#
#20900
0#
#20950
b1 G
1#
#21000
0#
#21050
09
b10 G
1#
#21100
0#
#21150
b11 G
1#
#21200
0#
#21250
b110101 N
b101 0
b101 H
b101 g
19
b0 G
1#
#21300
0#
#21350
b1 G
1#
#21400
0#
#21450
09
b10 G
1#
#21500
0#
#21550
b11 G
1#
#21600
0#
#21650
b110 0
b110 H
b110 g
b110110 N
19
b0 G
1#
#21700
0#
#21750
b1 G
1#
#21800
0#
#21850
09
b10 G
1#
#21900
0#
#21950
b11 G
1#
#22000
0#
#22050
b110111 N
b111 0
b111 H
b111 g
19
b0 G
1#
#22100
0#
#22150
b1 G
1#
#22200
0#
#22250
09
b10 G
1#
#22300
0#
#22350
b11 G
1#
#22400
0#
#22450
b1000 0
b1000 H
b1000 g
b111000 N
19
b0 G
1#
#22500
0#
#22550
b1 G
1#
#22600
0#
#22650
09
b10 G
1#
#22700
0#
#22750
b11 G
1#
#22800
0#
#22850
b111001 N
b1001 0
b1001 H
b1001 g
19
b0 G
1#
#22900
0#
#22950
b1 G
1#
#23000
0#
#23050
09
b10 G
1#
#23100
0#
#23150
b11 G
1#
#23200
0#
#23250
b1010 0
b1010 H
b1010 g
b111010 N
19
b0 G
1#
#23300
0#
#23350
b1 G
1#
#23400
0#
#23450
09
b10 G
1#
#23500
0#
#23550
b11 G
1#
#23600
0#
#23650
b111011 N
b1011 0
b1011 H
b1011 g
19
b0 G
1#
#23700
0#
#23750
b1 G
1#
#23800
0#
#23850
09
b10 G
1#
#23900
0#
#23950
b11 G
1#
#24000
0#
#24050
b1100 0
b1100 H
b1100 g
b111100 N
19
b0 G
1#
#24100
0#
#24150
b1 G
1#
#24200
0#
#24250
09
b10 G
1#
#24300
0#
#24350
b11 G
1#
#24400
0#
#24450
b111101 N
b1101 0
b1101 H
b1101 g
19
b0 G
1#
#24500
0#
#24550
b1 G
1#
#24600
0#
#24650
09
b10 G
1#
#24700
0#
#24750
b11 G
1#
#24800
0#
#24850
b1110 0
b1110 H
b1110 g
b111110 N
19
b0 G
1#
#24900
0#
#24950
b1 G
1#
#25000
0#
#25050
09
b10 G
1#
#25100
0#
#25150
b11 G
1#
#25200
0#
#25250
b111111 N
b1111 0
b1111 H
b1111 g
19
b0 G
1#
#25300
0#
#25350
b1 G
1#
#25400
0#
#25450
09
b10 G
1#
#25500
0#
#25550
b11 G
1#
#25600
0#
#25650
b1 %
b1 F
b1 n
b10 6
b10 C
b10 k
b0 ;
b0 <
b0 A
b10000100000000000000000000 3
b10000100000000000000000000 @
b10000100000000000000000000 I
b0 0
b0 H
b0 g
b1000000 N
19
b0 G
1#
#25700
0#
#25750
b1 G
1#
#25800
0#
#25850
09
b10 G
1#
#25900
0#
#25950
b11 G
1#
#26000
0#
#26050
b1 6
b1 C
b1 k
b1000100000000000000000000 3
b1000100000000000000000000 @
b1000100000000000000000000 I
b1000001 N
b1 0
b1 H
b1 g
19
b0 G
1#
#26100
0#
#26150
b1 G
1#
#26200
0#
#26250
09
b10 G
1#
#26300
0#
#26350
b11 G
1#
#26400
0#
#26450
b0 %
b0 F
b0 n
b0 6
b0 C
b0 k
b1 ;
b1 <
b1 A
b10000000000000000000000000001 3
b10000000000000000000000000001 @
b10000000000000000000000000001 I
b10 0
b10 H
b10 g
b1000010 N
19
b0 G
1#
#26500
0#
#26550
b1 G
1#
#26600
0#
#26650
09
b10 G
1#
#26700
0#
#26750
b11 G
1#
#26800
0#
#26850
b1000011 N
b11 0
b11 H
b11 g
19
b0 G
1#
#26900
0#
#26950
b1 G
1#
#27000
0#
#27050
09
b10 G
1#
#27100
0#
#27150
b11 G
1#
#27200
0#
#27250
b100 0
b100 H
b100 g
b1000100 N
19
b0 G
1#
#27300
0#
#27350
b1 G
1#
#27400
0#
#27450
09
b10 G
1#
#27500
0#
#27550
b11 G
1#
#27600
0#
#27650
b1000101 N
b101 0
b101 H
b101 g
19
b0 G
1#
#27700
0#
#27750
b1 G
1#
#27800
0#
#27850
09
b10 G
1#
#27900
0#
#27950
b11 G
1#
#28000
0#
#28050
b110 0
b110 H
b110 g
b1000110 N
19
b0 G
1#
#28100
0#
#28150
b1 G
1#
#28200
0#
#28250
09
b10 G
1#
#28300
0#
#28350
b11 G
1#
#28400
0#
#28450
b1000111 N
b111 0
b111 H
b111 g
19
b0 G
1#
#28500
0#
#28550
b1 G
1#
#28600
0#
#28650
09
b10 G
1#
#28700
0#
#28750
b11 G
1#
#28800
0#
#28850
b1000 0
b1000 H
b1000 g
b1001000 N
19
b0 G
1#
#28900
0#
#28950
b1 G
1#
#29000
0#
#29050
09
b10 G
1#
#29100
0#
#29150
b11 G
1#
#29200
0#
#29250
b1001001 N
b1001 0
b1001 H
b1001 g
19
b0 G
1#
#29300
0#
#29350
b1 G
1#
#29400
0#
#29450
09
b10 G
1#
#29500
0#
#29550
b11 G
1#
#29600
0#
#29650
b1010 0
b1010 H
b1010 g
b1001010 N
19
b0 G
1#
#29700
0#
#29750
b1 G
1#
#29800
0#
#29850
09
b10 G
1#
#29900
0#
#29950
b11 G
1#
#30000
0#
#30050
b1001011 N
b1011 0
b1011 H
b1011 g
19
b0 G
1#
#30100
0#
#30150
b1 G
1#
#30200
0#
#30250
09
b10 G
1#
#30300
0#
#30350
b11 G
1#
#30400
0#
#30450
b1100 0
b1100 H
b1100 g
b1001100 N
19
b0 G
1#
#30500
0#
#30550
b1 G
1#
#30600
0#
#30650
09
b10 G
1#
#30700
0#
#30750
b11 G
1#
#30800
0#
#30850
b1001101 N
b1101 0
b1101 H
b1101 g
19
b0 G
1#
#30900
0#
#30950
b1 G
1#
#31000
0#
#31050
09
b10 G
1#
#31100
0#
#31150
b11 G
1#
#31200
0#
#31250
b1110 0
b1110 H
b1110 g
b1001110 N
19
b0 G
1#
#31300
0#
#31350
b1 G
1#
#31400
0#
#31450
09
b10 G
1#
#31500
0#
#31550
b11 G
1#
#31600
0#
#31650
b1001111 N
b1111 0
b1111 H
b1111 g
19
b0 G
1#
#31700
0#
#31750
b1 G
1#
#31800
0#
#31850
09
b10 G
1#
#31900
0#
#31950
b11 G
1#
#32000
0#
#32050
b1 %
b1 F
b1 n
b10 6
b10 C
b10 k
b0 ;
b0 <
b0 A
b10000100000000000000000000 3
b10000100000000000000000000 @
b10000100000000000000000000 I
b0 0
b0 H
b0 g
b1010000 N
19
b0 G
1#
#32100
0#
#32150
b1 G
1#
#32200
0#
#32250
09
b10 G
1#
#32300
0#
#32350
b11 G
1#
#32400
0#
#32450
b1 6
b1 C
b1 k
b1000100000000000000000000 3
b1000100000000000000000000 @
b1000100000000000000000000 I
b1010001 N
b1 0
b1 H
b1 g
19
b0 G
1#
#32500
0#
#32550
b1 G
1#
#32600
0#
#32650
09
b10 G
1#
#32700
0#
#32750
b11 G
1#
#32800
0#
#32850
b0 %
b0 F
b0 n
b0 6
b0 C
b0 k
b1 ;
b1 <
b1 A
b10000000000000000000000000001 3
b10000000000000000000000000001 @
b10000000000000000000000000001 I
b10 0
b10 H
b10 g
b1010010 N
19
b0 G
1#
#32900
0#
#32950
b1 G
1#
#33000
0#
#33050
09
b10 G
1#
#33100
0#
#33150
b11 G
1#
#33200
0#
#33250
b1010011 N
b11 0
b11 H
b11 g
19
b0 G
1#
#33300
0#
#33350
b1 G
1#
#33400
0#
#33450
09
b10 G
1#
#33500
0#
#33550
b11 G
1#
#33600
0#
#33650
b100 0
b100 H
b100 g
b1010100 N
19
b0 G
1#
#33700
0#
#33750
b1 G
1#
#33800
0#
#33850
09
b10 G
1#
#33900
0#
#33950
b11 G
1#
#34000
0#
#34050
b1010101 N
b101 0
b101 H
b101 g
19
b0 G
1#
#34100
0#
#34150
b1 G
1#
#34200
0#
#34250
09
b10 G
1#
#34300
0#
#34350
b11 G
1#
#34400
0#
#34450
b110 0
b110 H
b110 g
b1010110 N
19
b0 G
1#
#34500
0#
#34550
b1 G
1#
#34600
0#
#34650
09
b10 G
1#
#34700
0#
#34750
b11 G
1#
#34800
0#
#34850
b1010111 N
b111 0
b111 H
b111 g
19
b0 G
1#
#34900
0#
#34950
b1 G
1#
#35000
0#
#35050
09
b10 G
1#
#35100
0#
#35150
b11 G
1#
#35200
0#
#35250
b1000 0
b1000 H
b1000 g
b1011000 N
19
b0 G
1#
#35300
0#
#35350
b1 G
1#
#35400
0#
#35450
09
b10 G
1#
#35500
0#
#35550
b11 G
1#
#35600
0#
#35650
b1011001 N
b1001 0
b1001 H
b1001 g
19
b0 G
1#
#35700
0#
#35750
b1 G
1#
#35800
0#
#35850
09
b10 G
1#
#35900
0#
#35950
b11 G
1#
#36000
0#
#36050
b1010 0
b1010 H
b1010 g
b1011010 N
19
b0 G
1#
#36100
0#
#36150
b1 G
1#
#36200
0#
#36250
09
b10 G
1#
#36300
0#
#36350
b11 G
1#
#36400
0#
#36450
b1011011 N
b1011 0
b1011 H
b1011 g
19
b0 G
1#
#36500
0#
#36550
b1 G
1#
#36600
0#
#36650
09
b10 G
1#
#36700
0#
#36750
b11 G
1#
#36800
0#
#36850
b1100 0
b1100 H
b1100 g
b1011100 N
19
b0 G
1#
#36900
0#
#36950
b1 G
1#
#37000
0#
#37050
09
b10 G
1#
#37100
0#
#37150
b11 G
1#
#37200
0#
#37250
b1011101 N
b1101 0
b1101 H
b1101 g
19
b0 G
1#
#37300
0#
#37350
b1 G
1#
#37400
0#
#37450
09
b10 G
1#
#37500
0#
#37550
b11 G
1#
#37600
0#
#37650
b1110 0
b1110 H
b1110 g
b1011110 N
19
b0 G
1#
#37700
0#
#37750
b1 G
1#
#37800
0#
#37850
09
b10 G
1#
#37900
0#
#37950
b11 G
1#
#38000
0#
#38050
b1011111 N
b1111 0
b1111 H
b1111 g
19
b0 G
1#
#38100
0#
#38150
b1 G
1#
#38200
0#
#38250
09
b10 G
1#
#38300
0#
#38350
b11 G
1#
#38400
0#
#38450
b1 %
b1 F
b1 n
b10 6
b10 C
b10 k
b0 ;
b0 <
b0 A
b10000100000000000000000000 3
b10000100000000000000000000 @
b10000100000000000000000000 I
b0 0
b0 H
b0 g
b1100000 N
19
b0 G
1#
#38500
0#
#38550
b1 G
1#
#38600
0#
#38650
09
b10 G
1#
#38700
0#
#38750
b11 G
1#
#38800
0#
#38850
b1 6
b1 C
b1 k
b1000100000000000000000000 3
b1000100000000000000000000 @
b1000100000000000000000000 I
b1100001 N
b1 0
b1 H
b1 g
19
b0 G
1#
#38900
0#
#38950
b1 G
1#
#39000
0#
#39050
09
b10 G
1#
#39100
0#
#39150
b11 G
1#
#39200
0#
#39250
b0 %
b0 F
b0 n
b0 6
b0 C
b0 k
b1 ;
b1 <
b1 A
b10000000000000000000000000001 3
b10000000000000000000000000001 @
b10000000000000000000000000001 I
b10 0
b10 H
b10 g
b1100010 N
19
b0 G
1#
#39300
0#
#39350
b1 G
1#
#39400
0#
#39450
09
b10 G
1#
#39500
0#
#39550
b11 G
1#
#39600
0#
#39650
b1100011 N
b11 0
b11 H
b11 g
19
b0 G
1#
#39700
0#
#39750
b1 G
1#
#39800
0#
#39850
09
b10 G
1#
#39900
0#
#39950
b11 G
1#
#40000
0#
#40050
b100 0
b100 H
b100 g
b1100100 N
19
b0 G
1#
#40100
0#
#40150
b1 G
1#
#40200
0#
#40250
09
b10 G
1#
#40300
0#
#40350
b11 G
1#
#40400
0#
